[gd_scene load_steps=4 format=2]

[ext_resource path="res://NeuralNetwork/Cross.gd" type="Script" id=1]

[sub_resource type="Shader" id=1]
resource_local_to_scene = true
code = "shader_type canvas_item;

uniform vec4 color : hint_color;

float box(in vec2 _st, in vec2 _size){
    _size = vec2(0.5) - _size*0.5;
    vec2 uv = smoothstep(_size,
                        _size+vec2(0.001),
                        _st);
    uv *= smoothstep(_size,
                    _size+vec2(0.001),
                    vec2(1.0)-_st);
    return uv.x*uv.y;
}

float dcross(in vec2 _st, float _size){
    return  clamp(box(_st, vec2(_size,_size/4.)) +
            box(_st, vec2(_size/4.,_size)),.0,1.);
}
void fragment()
{
	float c = dcross(UV,.25);
	COLOR = color*c;
}"

[sub_resource type="ShaderMaterial" id=2]
resource_local_to_scene = true
shader = SubResource( 1 )
shader_param/color = Color( 1, 1, 1, 1 )

[node name="Cross" type="ColorRect"]
material = SubResource( 2 )
anchor_left = 0.5
anchor_top = 0.5
anchor_right = 0.5
anchor_bottom = 0.5
margin_right = -462.0
margin_bottom = -250.0
rect_min_size = Vector2( 50, 50 )
rect_pivot_offset = Vector2( 25, 25 )
script = ExtResource( 1 )
__meta__ = {
"_edit_use_anchors_": false
}
