[gd_scene load_steps=5 format=2]

[ext_resource path="res://sizedimg.tres" type="Texture" id=1]
[ext_resource path="res://NeuralNetwork/Neuron/Neuron.gd" type="Script" id=2]

[sub_resource type="Shader" id=1]
resource_local_to_scene = true
code = "shader_type canvas_item;

uniform vec4 color : hint_color;

void fragment()
{
	COLOR = color;
	COLOR.a = 1.-smoothstep(.4,.41,length(.5-UV));
}"

[sub_resource type="ShaderMaterial" id=2]
resource_local_to_scene = true
shader = SubResource( 1 )
shader_param/color = Color( 1, 1, 1, 1 )

[node name="Neuron" type="Sprite" groups=[
"Neurons",
]]
material = SubResource( 2 )
texture = ExtResource( 1 )
script = ExtResource( 2 )
normal_color = Color( 1, 1, 1, 1 )
hover_color = Color( 0.533333, 0.823529, 0.964706, 1 )
